>> Aladdin's lamp  <<  10/96
 
                                           * )
                                         `(      *
                   ()                   *    )
                  <^^>                     (   .
                 .-""-.                      )
      .---.    ."-....-"-._     _...---''`/. '
     ( (`\ \ .'            ``-''    _.-"'`
      \ \ \ : :.                 .-'
       `\`.\: `:.             _.'
       (  .'`.`            _.'    make a wish!
        ``    `-..______.-'
                  ):.  (  
                ."-....-".
          jgs .':.        `.
              "-..______..-"




-=[ Ariel, the little mermaid ]=-  1/98

                    _
                ,="` `""=,       o
               /   ,=="""'=;        , __
       ~      /      ,--'/=,)  o    \`\\"._     _,
             |   .='/ <9(9.="       / _  |||;._//)
            /     (J    ^\ \     o_/@ @  ///  |=(
          .'    .' \  '='/  '-.  ( (`__,     ,`\|
         /     /    \`-;_      \  '.\_/ |\_.'   
    ~   /      |   /` _  \      )   `""```
       | ,     ;  /`\/ `\ \    /.-._///_
       |/     '   \_,\__/\ \.-'.'----'`
        \|     '.   \     \   /`-,   ~
          `\     _.-'\    (`-`  .'
            `-.-' _.-')__./,--'
         .--'`,-'`'""`    ` \
        /`"`-`               |          ~
       |                     /
    ~  |     .-'__         .'
        \   ;'"`  `""----'`
         \   \
          '.  `\
       jgs  )   `-.            ~
           /       `-._
          |     ,      `-,
       ~  \   .' `''----`
           `.(
             `

 

-=[ Arial ]=-  5/98
                                        _.._
                                   .--'` .-,)
                                 .'     /
                  ,             /      /
                 /\            ;      ;
                 | `.__..__    |      |
                 |         `''-\      ;
                  \             `      \
                   '.                   `.
                     '--.,__   __..-'-.   '. 
                            ```        `.   '.
                                         `.   `\
                         _.._              \    `\
                      _.'    '-._ .__       |     `\
                    .'/        .-'   `\     |       \
                  .'  :           .-.  |    /        \
        _        /     \         /_  | /_..-`"-.     ;
       / '.     |  .    )  .-')_/` \.'`         \    |
      ;    \    /_.'  .'_.' .-. .-./       .--._/    ;
      |   _ '-'`      ` /  /o )(o (       (   __    /
      ;  ( '           ///     _) |'.      `'`  `'-;
       \  `   _       ////  ,__   /  `,            _)
        '. ' ( `--.__.\  '.  `"` /              .-'
          '.  '      .-)  /-.__.'`-.  (     .  /
            \  ' __.' /  /          \  '---'  |
             `-.'-=\.'  /     _._\   \        /
               '===/   /`'._.'   _\_  \-.__.-'
          jgs    `|   /`-...--'''      |
                  \__/`-._       __.-'`
                          `"""""`

 



-=[ Ursula from the Little Mermaid ]=-  1/98

                            ,_   ,-"-._
                      .___   \'-._\  \`~,_
                      _'. `~-,\ ~-.|     \',
                    .'   \    |    \  '  /  \
                   / ~-.  |   '    | .' ;  ; \
                   |.--    \ . '   /    |  . |\
                   / ., `\ |     `___  /  .  ||
                   |/  \  \/\__.-'   `\;    / /
                        \ /      .--.  |   / /
                         /,     /    \ / .' / 
                        / \\   /."".  |;  '(__,
                      ,_|/_\ ._/___.\_|'   .-.;_,
                     "==;_o_\ /_o__,==" \ / )) .'__,
                    ,="/    |      "=,   ; _/   _.'
                    %/\__..)_,)`-.__     /\%\%\.`.__,
                  .%/%/` .-._ _..-. `      `"%\%.--'
                     ;   `;-.:..-'/|          |./
                 _.--|     ).___.-||          ;  `'--._
               .'    |  o /|     / ;          /        `,
              /      |   ( `----' /          /           \
             /       |    '------'         /`             \
            /         \  (     ,        .'`                \
           /           '._`---'     _.-'                    ;
          /      /     `._`""""""""`                         ;
         /     .'      ,__/`~|~`\                            |
        /    ooooo,    \  \ '`)- |            ,              |
      .'   d888888888ooo\ /'-'\ /o8888888o,    \             |
    .'    888888888888888'._|_.'888888888888b   \            |
  .'      888888888888888888888888888888888888, |            ;
     jgs   Y88888888888888888888888888888888888b;            /

 

 

-=[ Flounder (the Little Mermaid) ]=-  1/98
         , __
         \`\\"._     _,
         / _  |||;._/ )
       _/@ @  ///  | (
      ( (`__,     ,`\|
       '.\_/ |\_.'
 jgs     `""```

>> Cheshire Cat <<  10/96

                   .'\   /`.
                 .'.-.`-'.-.`.
            ..._:   .-. .-.   :_...
          .'    '-.(o ) (o ).-'    `.
         :  _    _ _`~(_)~`_ _    _  :
        :  /:   ' .-=_   _=-. `   ;\  :
        :   :|-.._  '     `  _..-|:   :
         :   `:| |`:-:-.-:-:'| |:'   :
          `.   `.| | | | | | |.'   .'
            `.   `-:_| | |_:-'   .'
         jgs  `-._   ````    _.-'
                  ``-------''



>> Cinderella's Carriage <<  10/96
                          
                        _()_
                         )(
                   _..-''''''-.._
                 .'  . '    ` .  `.
               .'  .            .  `.
          .-. :   .    ......    .   :
         :   :   .   .' )  ( `.   .   :
         `. @:   .   : <    > :   .   :  .-----.
           `.:   .   :--`--'--:   .   :.'       `.
         .---::  .   :  .--. *:   .  ::     _     :
       .'.'   `:. .  :  :__.  :  . .' :    '.`:   :
       : : -.  : `._ `.______.' _.'   '`._   .'   '
   jgs `. `'' .'    ``-......-''       `. ```   .'
         `---'                           `-----'

 

  
-=[ Pocohontas ]=-  10/97
(some people claimed this to be Cleopatra...)
         
                 .:::::::.
               .::::::::::::.
             .::::::::::::=='=-,
           _;;;;=='''`         _;
          /            __,,==::::.
          \___,,,===''':::::::::::.
          ;|_       __  `::::::::::.
          :\__.    __.`  ::-.:::::::
          ::)#_\   `#_\   : _,\:::::.
          ::|            `   _/::::::
          ::|   ,.          |\:::::::
          ::;              /  ;::::::
          :::\  .-._,     /    ;:::::
          ':::\ \^/      /     ;:::::
           ':::\ `     /`      ;:::::
            ':::'.__.:\        ;:::::
             ':::::::::|       ;:::::
              :::::::::|   .-. \:::::
              ::::::::/__.'   '.\::::
              ::::::(`/ /       \|:::
              ::::-'--'`|--'--'--|:::
             .::' / | | |     /  |::'
            .:/ `"---"'`|     |  /::
      jgs  .:;          |     |-'|'

 

-=[ Jungle book characters -Bagheera ]=-  10/97

                 ,--"""--,
               .'_       _'.
        .-"-._/ / \     / \ \_.-"-.
       /.-,  /  \(o_/ \_o)/  \  ,-.\
       |   >/     _/   \_     \<   |
       \  ` |  .`( '-.-' )'.  | `  /
        '--'|  |  '-. .-'  |  |'--'
            |  | .'. | .'. |  |
            \   \___.'.___/   /
             '.  )\/-.-\/(  .'
               \/'./\_/\.'\/
          jgs   |  `"`"`  |
                |         |
                \         /
                 '._____.'

 

-=[ Jungle Book- Sher-Khan  ]=-  10/97
 
                         _____
            __       .-'`     `'-.       __
           / _'-._.-'--,       ,--'-._.-'_ \
          | / ' .'  .--.\     /.--.  '. ' \ |
          ||  .' .:/____\\   //____\:. '.  ||
           \,/.   |  \o/ |   | \o/  |   .\,/
         ,-`/ :.   '.___.|   |.___.'   .: \`-,
       ,--`/.  '::'    / /   \ \    '::'  .\`--,
     ,'--'| :.       /` /     \ `\       .: |'--',
     ,'`.  \ ':.:' /`  (`'---'`)  `\ ':.:' /  `',
     ,'  _  '-..--'|  . '.   .' .  |'--..-'   ', 
      `.-`         \  .'  `:`  '.  /         `-.`
      `.-'_  .  _   \,__.--'--.__,/  __ . _'-.`
         ' `/.-' ''-)            (-''  '-.\`
                    |            |
               jgs  |            |
                    \            /
                     '.________.'

 

 @@ Goofy @@  11/96

                  .
                \ | /
                _\|/_
              .' ' ' '.        ___
            _.|.--.--.|.___.--'___`-.
          .'.'||  |  ||`----'"`   ``'`
        .'.'  ||()|()|| 
.___..-'.'    /       \
`----'"`     /   .-.   \
            (.'.(___).'.)
             `.__.-.__.'
        jgs   |_|   |_|
               `.`-'.'
                 `"`

                            


>> Mickey Mouse <<  10/96

                   _.-''''-._
                 .'          `.
                :              `.
               :                 :
              :                   :
              :                   :
               :                 :
                `.              :       _..-''-._    
                .-`.           `-.    .'         `.
              .'.--.  .---._      `. ;             ;
             ..'    `'      `.      :               ;
          _  :   .''.  .''.   :                     ;
        .' `.:   .-. ; .-. ;  ;                     ;
        :   :--. :_:'  :_:' .'_.--.                ;
      .'`._.'   `.         .-'     `.            .'
     :                               `._      _.'
     :                    .---.       : ``--``
     `.                    .'  `     .'
       `.               _.'    _  _.'
         ``-..__...---'';    .'_.'
             `._`-._`' .'  .'``
        jgs     `-._```_.-'
                    ```

 

-=[ Mickey Mouse ]=-  7/97

             .-"""-.
            /       \
            \       /
     .-"""-.-`.-.-.<  _
    /      _,-\ ()()_/:)
    \     / ,  `     `|
     '-..-| \-.,___,  /
           \ `-.__/  /
      jgs   `-.__.-'`

             .-"""-.
            /       \
            \       /
     .-"""-.-`.-.-.<  _
    /      _,-\ ()()_/:)
    \     / ,  `     `|
     '-..-| \-.,___,  /
           \ `-.__/  /
      jgs / `-.__.-\`
         / /|    ___\
        ( ( |.-"`   `'\
         \ \/    {}{}  |
          \|           /
           \        , /
           ( __`;-;'__`)
           `//'`   `||`
          _//       ||
  .-"-._,(__)     .(__).-""-.
 /          \    /           \
 \          /    \           /
  `'-------`      `--------'`

 

-=[ French Mickey ]=-  8/97                        

             .-"""-.
            /       \
            \       /
     .-"""-.-`.-.-.<  _
    /      _,-\ O_O-_/ )  ~champagne, monsieur?
    \     / ,  `   . `|
     '-..-| \-.,__~ ~ /          .,
           \ `-.__/  /          /"/
          / `-.__.-\`-._    ,",' ;
         / /|    ___\-._`-.; /  ./-.  
        ( ( |.-"`   `'\ '-( /  //.-' 
         \ \/    {}{}  |   /-. /.-'
          \|           /   '..' 
           \        , /
           ( __`;-;'__`)
           `//'`   `||`
jgs+/-    _//       ||
  .-"-._,(__)     .(__).-""-.
 /          \    /           \
 \          /    \           /
  `'-------`      `--------'`
champagne/mustache/arm added by:  wiese@dataweb.nl (miK)

 

                  .-"""-.
                 /  . -  \
                 \       /
           .-""-.,:.-_-.<
          /    _; o / )o|
          \  ; / `  `"  '\
           '.-| ;-.____, |             .,
               \ `._~_/ /             /"/
  ,.           /`-.__.-'\`-._     ,",' ;
  \"\         / /|   o   \._ `-._; /  ./-.
   ; ';,     / / |    ’___\ `-.,( /  //.-'
  :\  \\;_.-" ;  |.-"``    `\    /-. /.-'
   :\  .\),.-'  /      }{    |   '..'
     \ .-\      |          , /
      '..'      ;'        , /
               ( __ `;--;'__`)
                `//'`    `||`
               _//        ||
       .-"-._,(__)      .(__).-""-.
      /          \     /           \
      \          /     \           /
       `'--=="--`       `--""==--'`jgs+/-miK

 

 

-=[ Mickey Mouse ]=-  7/97

     .-"-.         .-"-.
    /     \ _____ /     \
    \      `     `      /
     `--/,'^^'.'^^',\--` 
       || /^\   /^\ |\
       |\ |0| _ |0| /|
       \_\`~`.-.`~`/_/
       /     '-'     \
       \  `-,...,-`  /
   jgs  '-._ \^/ _.-'
            `"""`

 

-=[ Mickey Mouse ]=-  3/98
                         _..-----._
                       .'          '.
                      /              \
                     |                ;
                     |                 |
                     \                 |
                      \               ;
                _..----'             /
              .`-. .-'``'-.       .-'
            .'_   `  _     '.    `'.
           /  _`    _ `      \      \     _...._
        _  | /  \  /  \      |       | .-'      `'.
       / \ | | /|  | /|      |       ;'            \
      |  |_\ \_|/  \_|/      /                      ;
      .\_/  `'-.            /_...._                 |
     /          `                  `\               |
     |                        __     |             /
      \                       / `   //'.         .'
       '._                  .'     .'   `'-...-'`
          `"'-.,__    ___.-'    .-'
         jgs  `-._````  __..--'`
                  ``````


                            _____
                        .d88888888bo.
                      .d8888888888888b.
                      8888888888888888b
                      888888888888888888
                      888888888888888888
                       Y8888888888888888
                 ,od888888888888888888P
              .'`Y8P'```'Y8888888888P'
            .'_   `  _     'Y88888888b
           /  _`    _ `      Y88888888b   ____
        _  | /  \  /  \      8888888888.d888888b.
       d8b | | /|  | /|      8888888888d8888888888b
      8888_\ \_|/  \_|/      d888888888888888888888b
      .Y8P  `'-.            d88888888888888888888888
     /          `          `      `Y8888888888888888
     |                        __    888888888888888P
      \                       / `   dPY8888888888P'
       '._                  .'     .'  `Y888888P`
          `"'-.,__    ___.-'    .-'
         jgs  `-._````  __..--'`
                  ``````

 

-=[ Steamboat Willie ]=-  7/97
      __       __
     /  `\ _ /`  \
     \_   ` `   _/
       /'^'.'^'\ 
       | O   O |
       \   o   /
  jgs   '._-_.'

 

 

-=[ Bambi  ]=-  3/97
                                ,
                               //\
                              / | ;
                              | /_|
                            .-"`  `"-. 
                          /`          `\
                         /              \
                   .-.,_|      .-""""-. |
                  |     `",_,-'  (((-. '(  
                   \ (`"=._.'/   (  (o>'-`"#
        ,           '.`"-'` /     `--`  '==;
       /\\            `'--'`\         _.'~~
      / | \                  `.,___,-} 
      | |  |                   )  {  }
       \ \ (.--==---==-------=' o {  }
        ",/` (_) (_)  (_)    (_)   \ /
         / ()   o   ()    ()        ^|
         \   ()  (    () o        ;  /
          `\      \         ;    / } |
            )      \       /   /`  } /
         ,-'       |=,_   |   /,_ ,'/
         |    _,.-`/   `"=\   \\   \
         | ."` \  |        \   \`\  \
         | |    \ \         `\  \ `\ \
         | |     \ \          `\ \  \ \
         | |      \ \           \ \  \ \
         | |       \ \           \ \  \ \
         | |        \ \           \ \  \ \
         | |         ) \           \ \  ) \
     jgs `) \        ^ww            ) \ ^ww
          ^ww                       ^ww






>>  Thumper  <<  10/96
        (modified from existing work)
        ** see the "conversion" section of my home page
                for more examples of this!

                     __,,,,,,,,,_
                  .-'  ___      .\
                 /    /__ `\    , `\
            ,""")    / @ \ =\    :  `\
            .\_/`"'".`~'""'~'     :   `\
           :. _\____,;      .      ;`.  `\
           :  `\_|   .)   .:      .'  `.  \
            '   \...:/            /\`.  `. \
             `-._\::/           ./. \ `.  ; \
               _.)--'`--....-'.' ( \_)  `. \ |
             _(  -==        .'    \       `"''
           .(   -=-       ,'       \
           (   =-=        )         \
           `(   -=        )      .   `\
         .'  `(  -         );    ;     `\
         ;     `(       _.'.'   .'       \  ,
         ;    .';`"'~~'` .'   .';         ;' ).
          \\\_; ;:     :'(( _.' (         ;   ).
    jgs        .'`:     ''"'     \       ;     )
      _,-----'"    `._        .-'   - ._;    )'
     / /           __.`._   .'         / `--'
     `'`'`'`'`''"""      `":  ,       ;   
                           :_/  /   .'
                             `''--'`



-after
                             ...::::)))))):.
  /~~\               ...:(((((((((((((((((:'
 /~~\ \          .::)))))))))))))))))))):`
     \_\__   ,-((((((((((((((((((((((:'
   ,'~__ '),' ` `''"~'~-=-===.~~'"'`
  (,@   ,/   `.`.`. .-.     _/@@@/`.
   \_.__/\__`~\____ |~|.~+=/@@@/~_/@`.
     ~` _____\ \. '~| |'~~;@@/~_/@@@@/`.
       /=___=___\-  | |    `\_/@@@@/~_/@`.
      //~           `.`.      '\@/~_/@@@@/.
 jgs //               `.`.       \/@@@/~~ ;
    ]/                  ~=`._      `'~=._.;
                                         .'



                              ccc  c  c  ccc                                
                               $   $cc$  $==                                
                               $   $  $  $cc                                
=ccr=    ========================================================  _,r====c, 
 )$F     =cc= ,z=""?b, `$c.     3$"    "$$" "$P" "3$" "$c,    "$" cP"     `$ 
 )$F      $$ zP      ?b $F?b,   3$      $$,/"     3$   $"?c,   $ z$         
 )$F      $$<$F       $>$F  ?b, 3$      $$C       3$   $  "?c  $ $$     ,,,, 
 )$F      $$ ?b      z$'$F   `?bJ$      $$`"c,    3$   $    "?c$ `$L      $$ 
,J$L,,,c" $$  "b,..,cP' $L     `?P      $$   ?b,  3$   $      "$  `?c,,.,,P" 
`""""""' `""'   """"   `""      `'     """"  """ `""' """      "    `""""" 

                                       /\
                                      /  \
                                     / /\ \
                                    / /  \ \
                                   / /    \ \
                                  / /      \ \
                                 / /        \ \
                                / /          \ \
                               / /            \ \
_ _____  _ _ _  ___ __________/ /              \ \_____________________________
`|_   _|| |_| || __|___________/                \________________________  ,-'
   | |`-|  _  || _|                                                  ,-',-'
   |_|`-|_| |_||___|                                             _,-',-'
  ____    `-.`-____        ____        ___      ___  ___  _____,-_,-'________
 |    \      `/    |    ,-'    `-.    |   |    |   ||   ||        | /        |
 |     \     /     |-.,'  __  __  `.  |   |    |   ||   ||    ____||    _____|
 |      \   /      |-/   /  \/  \   \ |   |    |   ||   ||   |____ |   (____
 |       \_/       ||    \      /    ||   |    |   ||   ||        ||        \
 |   |\       /|   ||     |     ]    | \   \  /   / |   ||    ____| \____    |
 |   | \     / |   |/\    |____|    /   \   \/   /  |   ||   |____  _____)   |
 |   |  \   /  |   | / .  ,' | `. ,'   , \      /   |   ||        ||         |
 |___|   \_/   |___|/   `-.____,-'  ,-',`-\____/    |___||________||________/
                 / /             ,-',-' `-.`-.             \ \
                / /           ,-',-'       `-.`-.           \ \
               / /         ,-',-'             `-.`-.         \ \
              / /       ,-',-'                   `-.`-.       \ \
             / /     ,-',-'                         `-.`-.     \ \
            / /   ,-',-'                               `-.`-.   \ \
           / / ,-',-'                                     `-.`-. \ \
          / /-',-'                                           `-.`-\ \
         /_,-'`                                                 `'-._\



