 ______
| |__| |
|  ()  |
|______|

 _____
|==   |
|  o. |
|__O__|  Randy Ransom

Floppy Disk by Sarah Day

 ________
| |____| |
|   __   |
|  (__)  |
|        |
|________|

3 1/2 inch disk

               ___________
SAVE          |           |
THE           |           |
DISK!         |    (O)    |
              |    !|!    |
              |____!_!____|

 _________
|^|     | |
| |_____| |
|  _____  |
| |     | |
| |_____| |
|_|_____|_|

 _.........._
| |mga     | |
| |        | |
| |        | |
| |________| |
|   ______   |
|  |    | |  |
|__|____|_|__|

 ______________
|[]            |
|  __________  |
|  | Radio  |  |
|  | Shack  |  |
|  |________|  |
|   ________   |
|   [ [ ]  ]   |
\___[_[_]__]___|

 _________________
|# :           : #|
|  :           :  |
|  :           :  |
|  :           :  |
|  :___________:  |
|     _________   |
|    | __      |  |
|    ||  |     |  |
\____||__|_____|__|lc

Art by Edward Farrow

.-.-----------.-.
| |-----------|#|
| |-----------| |
| |-----------| |
| |--------etf| |
| "-----------' |
|  .-----.-..   |
|  |     | || |||
|  |     | || \/|
"--^-----^-^^---'

 _________________
| | ___________ |o|
| | ___________ | |
| | ___________ | |
| | ___________ | |
| |_____________| |
|     _______     |
|    |       |   ||
| DD |       |   V|
|____|_______|____|
      Robert Craggs

 ___,___,_______,____
|  :::|///./||'||    \
|  :::|//.//|| || H)  |
|  :::|/.///|!!!|     |
|   _______________   |
|  |:::::::::::::::|  |
|  |_______________|  |
|  |_______________|  |
|  |_______________|  |
|  |_______________|  |
||_|     boba      ||_|
|__|_______________|__|

BBBBBBBBBBBBBBBBBBBBBBBBBBB
BMB---------------------B B
BBB---------------------BBB
BBB---------------------BBB
BBB---------------------BBB
BBB---------------------BBB
BBB---------------------BBB
BBBBBBBBBBBBBBBBBBBBBBBBBBB
BBBBB++++++++++++++++BBBBBB
BBBBB++BBBBB+++++++++BBBBBB
BBBBB++BBBBB+++++++++BBBBBB
BBBBB++BBBBB+++++++++BBBBBB
BBBBB++++++++++++++++BBBBBB

    ____________________
   |  |              |  |
   |[]|              |[]|
   |  |              |  |
   |  |              |  |
   |  |              |  |
   |  |______________|  |
   |                    |
   |     ____________   |
   |    | __      |  |  |
   |    ||  |     |  |  |
   |    ||__|     |  |  |
pjp|____|_________|__|__|

Floppy Disk

 ____________________
| |""""""""""""""""| |
|.|________________|H|
| |________________| |
| |________________| |
| |________________| |
| |________________| |
| |________________| |
|                    |
|    ____________    |
|   |   |  _     |   |
|   |   | | |    |   |
|   |   | |_|    | V | mga
|___|___|________|___|

ZIP Disk

 .-|:"""":""""""'''"""":|-.
:  |'----'-------------'|  :
:  |                    |  :
:  |                    |  :
:  |               mga  |  :
:  | .----------------. |  :
:  |[ zip:          [i]]|  :
:  |[------------------]|  :
:  |[                  ]|  :
:  |[                  ]|  :
:  |[.....        PC100]|  :
:  |[::::::..    iomega]|  :
:  |""""""""""""""""""""|  :
'--'--------------------'--'

     ___________________________
    |[]                        []|
    |[]                        []|
    |                            |
    |            . .             |
    |          `    _`           |
    |         `  ()|_|`          |
    |         `       `          |
    |          ` . . `           |
    |      ________________      |
    |     |          ____  |     |
    |     |         |    | |     |
    |     |         |    | |     |
    |     |         |    | |     |
    |()   |         |_  _| |   ()|
    |)    |           --   |    (|
das |_____|[]______________|\___/

,'";-------------------;"`.
;[]; ................. ;[];
;  ; ................. ;  ;
;  ; ................. ;  ;
;  ; ................. ;  ;
;  ; ................. ;  ;
;  ; ................. ;  ;
;  ; ................. ;  ;
;  `.                 ,'  ;
;    """""""""""""""""    ;
;    ,-------------.---.  ;
;    ;  ;"";       ;   ;  ;
;    ;  ;  ;       ;   ;  ;
;    ;  ;  ;       ;   ;  ;
;//||;  ;  ;       ;   ;||;
;\\||;  ;__;       ;   ;\/;
 `. _;          _  ;  _;  ;
   " """"""""""" """"" """

Art by David Palmer

.---------------------------------.           
|  .---------------------------.  |           
|[]|                           |[]|           
|  |                           |  |           
|  |                           |  |           
|  |                           |  |           
|  |                           |  |           
|  |                           |  |           
|  |                           |  |           
|  |                           |  |           
|  |                           |  |           
|  `---------------------------'  |           
|      __________________ _____   |           
|     |   ___            |     |  |           
|     |  |   |           |     |  |           
|     |  |   |           |     |  |           
|     |  |   |           |     |  |           
|     |  |___|           |     |  |           
\_____|__________________|_____|__|dp

,'";-------------------;"`.
;[]; ................. ;[];
;  ; ................. ;  ;
;  ; ................. ;  ;
;  ; ................. ;  ;
;  ; ................. ;  ;
;  ; ................. ;  ;
;  ; ................. ;  ;
;  `.                 ,'  ;
;    """""""""""""""""    ;
;    ,-------------.---.  ;
;    ;  ;"";       ;   ;  ;
;    ;  ;  ;       ;   ;  ;
;    ;  ;  ;       ;   ;  ;
;//||;  ;  ;       ;   ;||;
;\\||;  ;__;       ;   ;\/;
 `. _;          _  ;  _;  ;
   " """"""""""" """"" """
         -=> Philip Kaulfuss <=-

 ___________________________.
|;;|                     |;;||
|[]|---------------------|[]||
|;;|                     |;;||
|;;|                     |;;||
|;;|                     |;;||
|;;|                     |;;||
|;;|                     |;;||
|;;|                     |;;||
|;;|_____________________|;;||
|;;;;;;;;;;;;;;;;;;;;;;;;;;;||
|;;;;;;_______________ ;;;;;||
|;;;;;|  ___          |;;;;;||
|;;;;;| |;;;|         |;;;;;||
|;;;;;| |;;;|         |;;;;;||
|;;;;;| |;;;|         |;;;;;||
|;;;;;| |;;;|         |;;;;;||
|;;;;;| |___|         |;;;;;||
\_____|_______________|_____||
 ~~~~~^^^^^^^^^^^^^^^^^~~~~~~

5 1/4' diskette

aaaaaaaaaaaaaaaaaaaaaaaaaaaaaaaaaaaaaaaaaaaaaaaaaaaaa
8                                                   8
8  a---------------a                                8
8  |               |                                8
8  |               |                                8
8  |               |                               8"
8  "---------------"                               8a
8                                                   8
8                                                   8
8                      ,aaaaa,                      8
8                    ad":::::"ba                    8
8                  ,d::;gPPRg;::b,                  8
8                  d::dP'   `Yb::b                  8
8                  8::8)     (8::8                  8
8                  Y;:Yb     dP:;P  O               8
8                  `Y;:"8ggg8":;P'                  8
8                    "Yaa:::aaP"                    8
8                       """""                       8
8                                                   8
8                       ,d"b,                       8
8                       d:::8                       8
8                       8:::8                       8
8                       8:::8                       8
8                       8:::8                       8
8                       8:::8                       8
8                  aaa  `bad'  aaa                  8
"""""""""""""""""""' `"""""""""' `"""""""""""""""""""
                                   Normand  Veilleux
