        ___,-----.___
    ,--'             `--.
   /                     \
  /                       \
 |                         |
|                           |
|        |~~~~~~~~~|        |
|        \         /        |
 |        \       /        |
  \        \     /        /
   \        |   |        /
    \       |   |       /
     \      |   |      /
      \     |   |     /
       \____|___| ___/
       )___,-----'___(
       )___,-----'___(
       )___,-----'___(
       )___,-----'___(
       \_____________/
            \___/

            Woman in light bulb by Joan Stark

        ___
    .-"`   `"-.
  .'    .-.    '.
 /     (/^\)     \
/  #   (\ /)      \
| #    .-'-.      |
|     /(_I_)\     |
;     \\) (//     ;
 ;     / Y \     ;
  \    \ | /    /
   \    \|/    /
    \   /|\   /
     |  \|/  |
     |__/Y\__|
     {=======}
     }======={
     {=======}
     }======={
  jgs{=======}
      `""u""`
