Characters 
in
ASCII

            .-""""-.        .-""""-.
           /        \      /        \
          /_        _\    /_        _\
         // \      / \\  // \      / \\
         |\__\    /__/|  |\__\    /__/|          
          \    ||    /    \    ||    /
           \        /      \        /
            \  __  /        \  __  /
             '.__.'          '.__.'
              |  |            |  |
     jgs      |  |            |  |
    





-=[ caveman and family ]=-  9/00

          ////\
        ///_ _\\\
        // '\' \\
       ///\_-_/\\\
          _) (_
         /\`"` \
        /| \ '  \
       / |  '--; \
      / /|     |\ \  ____
     (.' |_____| '.;'    '.
     \\   \ | /   /        \
     )'\  ( | )   |   ()   |
 jgs |. | / T \   \        /
     \_/ ooO Ooo   '.____.'


         \\\\\//
        ///_ _\\\
        )) '>' ((
       ///\_-_/\\\
       ////) (\\\\ 
       ``/\`"` \``  \\)//
        /| '---,\  //. .\\
       / :-' '-| \  \_-_/
      / /|'  .:|'(\/`. .\
     (.' |_____|  \/|_._|\
     \\   \ | /     /\_/\\)
     )'\   (|)      \_|_/
 jgs |. |  /T\      |/ \|
     \_/  ooOoo     "' '"

        
         \\/////              \\\\\//
        ///_ _\\\            ///_ _\\\
        // '\' \\            )) '>' ((
       ///\_-_/\\\          ///\_-_/\\\
          _) (_             ////) (\\\\ 
         /\`"` \            ``/\`"` \``  \\)//
        /| \ '  \            /| '---,\  //. .\\
       / |  '--; \          / :-' '-| \  \_-_/
      / /|     |\ \  ____  / /|'  .:|'(\/`. .\
     (.' |_____| '.;'    '(.' |_____|  \/|_._|\
     \\   \ | /   /        \   \ | /     /\_/\\)
     )'\  ( | )   |   ()   |    (|)      \_|_/
 jgs |. | / T \   \        /    /T\      |/ \|
     \_/ ooO Ooo   '.____.'    ooOoo     "' '"

 

** alien cyclops **  10/96             


   o            o
    \          /
     \        /
      :-'""'-:
   .-'  ____  `-.
  ( (  (_()_)  ) )
   `-.   ^^   .-'
      `._==_.'
  jgs  __)(___

 

-=[ little alien ]=-  3/97
              _       _
             (_\     /_)
               ))   ((
             .-"""""""-.  
         /^\/  _.   _.  \/^\
         \(   /__\ /__\   )/
          \,  \o_/_\o_/  ,/
            \    (_)    /
             `-.'==='.-'
              __) - (__   
             /  `~~~`  \
            /  /     \  \
            \ :       ; /
             \|==(*)==|/
              :       :
               \  |  /
             ___)=|=(___
        jgs {____/ \____}

 

-=[ aliens ]=-  6/97

            .-""""-.        .-""""-.
           /        \      /        \
          /_        _\    /_        _\
         // \      / \\  // \      / \\
         |\__\    /__/|  |\__\    /__/|
          \    ||    /    \    ||    /
           \        /      \        /
            \  __  /        \  __  /
             '.__.'          '.__.'
              |  |            |  |
     jgs      |  |            |  |


            .-""""-.       .-""""-.
           /        \     /        \
          /_        _\   /_        _\
         // \      / \\ // \      / \\
         |\__\    /__/| |\__\    /__/|
          \    ||    /   \    ||    /
           \        /     \        /
            \  __  /       \  __  /
    .-""""-. '.__.'.-""""-. '.__.'.-""""-.
   /        \ |  |/        \ |  |/        \
  /_        _\|  /_        _\|  /_        _\
 // \      / \\ // \      / \\ // \      / \\
 |\__\    /__/| |\__\    /__/| |\__\    /__/|
  \    ||    /   \    ||    /   \    ||    /
   \        /     \        /     \        /
    \  __  /       \  __  /       \  __  /
     '.__.'         '.__.'         '.__.'
 jgs  |  |           |  |           |  |
      |  |           |  |           |  |

 

-=[ alien ]=-  6/98

         _..._
       .'     '.
      /`\     /`\    |\
     (__|     |__)|\  \\  /|
     (     "     ) \\ || //
      \         /   \\||//
       \   _   /  |\|`  /
        '.___.'   \____/
         (___)    (___)
       /`     `\  / /
      |         \/ /
      | |     |\  /
      | |     | "`
      | |     |
      | |     |
      |_|_____|
     (___)_____)
     /    \   |
    /   |\|   |
   //||\\  Y  |
  || || \\ |  |
  |/ \\ |\||  |
      \||__|__|
       (___|___)
  jgs  /   A   \
      /   / \   \
     \___/   \___/


         _..._
       .'     '.
      / \     / \
     (  |     |  )
     (`"`  "  `"`)
      \         /
       \  ___  /
 jgs    '.___.'

 

-=[ alien face ]=-  4/00

                  (
               __..)__
             .'       `'.
            / - -        `\
           /(')(')         \
           /  ^        )   |
           \.--.           |
            \--'          /
             \__.-' __..''
        jgs    /     |

                  (
               __..)__
             .'       `'.
            / - -        `\
           /(')(')         \
           /  ^        )   |
     _     \.--.           |
    / \_    \--'          /
    \   )    \__.-' __..''
     `) '.   /     |
      \   './   \   \
       '.  /     |   \
        '\;      |   ,;
         |       |   | |
         |       |  /  |      __
         |       \ '-, |      \ '.
         |        '._) |      |   \
          \            |      /_  |
           '.          /_..--"  \/
             `;.    .-'--..___.-'
    jgs       | |  /
     .-"""""-.| | |__..--""-.
    (         _.|            \
     '-....-'`   `""--...__.-'

 

-=[ alien and UFO ]=-  9/98

                           .-.
            .-""`""-.    |(@ @)
         _/`oOoOoOoOo`\_ \ \-/
        '.-=-=-=-=-=-=-.' \/ \
    jgs   `-=.=-.-=.=-'    \ /\
             ^  ^  ^       _H_ \

 
-=[ aliens and spaceship ]=-  10/00

                        .   .      .   .     .   .
           .-"""-.       \_/        \_/       \_/
          /       \      / \        / \       ) (
       .--'._____.'--.   \"/        \"/       \"/
      ( o     _     o )  /|\__,   __/|\       /|\
       '-..o_|_|_o..-'   \|      `   | \     / | \
   jgs   /        \      `|\         |\ `   ` /|  `
       ()          ()     | \        / |   __/ |
                          | /       /  |  `    |
                          ` `      `   `       `

 

** pig-headed person **  10/96

       (\____/)
       / 6__6 \ 
      (  (oo)  )
       `-.~~.-'
       ___)(____
      (   \/    )
 \||, )(   (  / (
   \\/ /\    / \ \
    \./  )==(  / /
        /    \//'
       (     '|\`
        \    /
         \  /
         )  ( 
        /    \ 
  jgs  /      \
      /        \
     `-........-'

 

-=[ "SuperChicken" ]=-  2/97
                 ___
                ('v')
    ,_     }   ((___))
    |\`(  .".  )`/| \\
    |)\~\/e e\/~/\|  ^
    | /\ \=v=/ /) |
    |) /\ `-' /\ (|
    )\(/ | C |(\ /(
     (\_/|===|\_/)
       ) ||^|| (
         (| |)
        _|| ||_
  jgs  (__| |__)



               
-=[ birdman ]=-  2/97
    ,_       
     \`(  ;".____
     )\~\/  6\___\
    ( (\ \   /--`
     ) )\ `-' `\ 
      ( )|}:{|\ \
       ( |___|(( \
         |   | )(~)
         ||^|| ( )
         (| |)   (
         || ||
      ,=`~| |~`=,
jgs   `"""' '"""`

 

-=[ Jack in the Box ]=-  12/96

             0_
              \`.     ___
               \ \   / __>0
           /\  /  |/' / 
          /  \/   `  ,`'--.
         / /(___________)_ \
         |/ //.-.   .-.\\ \ \
         0 // :@ ___ @: \\ \/
           ( o ^(___)^ o ) 0
            \ \_______/ /
        /\   '._______.'--.
        \ /|  |<_____>    |
         \ \__|<_____>____/|__
          \____<_____>_______/
              |<_____>    |
              |<_____>    |
              :<_____>____:
             / <_____>   /|
            /  <_____>  / |
           /___________/  |
           |           | _|__
           |           | ---||_
           |   |L\/|/  |  | [__]
           |  \|||\|\  |  /
       jgs |           | /
           |___________|/


             0_
              \`.     ___
               \ \   / __>0
           /\  /  |/' / 
          /  \/   `  ,`'--.
         / /(___________)_ \
         |/ //.-.   .-.\\ \ \
         0 // :@ ___ @: \\ \/
           ( o ^(___)^ o ) 0
            \ \_______/ /
        /\   '._______.'--.
        \ /| /////\\\\\\  |
         \ \_\\\\\//////__/|__
          \____<_____>_______/
              |<_____>    |
              |<_____>    |
              :<_____>____:
             / <_____>   /|
            /  <_____>  / |
           /___________/  |
           |           | _|__
           |           | ---||_
           |   |L\/|/  |  | [__]
           |  \|||\|\  |  /
       jgs |           | /
           |___________|/

 

-=[ jokers/jesters ]=-  1/98

                 @-.
               _  )\\  _  
              / \/ | \/ \
             @/`|/\/\/|`\@
                /~~~~~\
               |  ^ ^  |
              (|   .   |)
               | (\_/) |
            .-"-\ \_/ /-"-.
           / .-. \___/ .-. \
          @/` /.-.   .-.\ `\@
     jgs     @`   \ /   `@
                   @




               _
              (_)          _
          _         .=.   (_)
         (_)   _   //(`)_
              //`\/ |\ 0`\\
              ||-.\_|_/.-||
              )/ |_____| \(    _
             0   #/\ /\#  0   (_)
                _| o o |_
         _     ((|, ^ ,|))
        (_)     `||\_/||`
                 || _ ||      _
                 | \_/ |     (_)
             0.__.\   /.__.0
              `._  `"`  _.'
       jgs       / ;  \ \
               0'-' )/`'-0
                   0`

 

-=[ jester ]=-  8/98

              o
              /\
             (  )
          .--.\/.--.
         (/`\_\/_/`\)
         o  [____]  o
           ////\\\\
           ( '  ' )
          //|  \ |\\
          //\ -- /\\
         .--'\__/'--.
        (/`\      /`\)
    jgs  o /_/  \_\ o
          o   \/   o
              o

 


  
                                  ,;;;;;;,
                                ,;;;'""`;;\
                              ,;;;/  .'`',;\
                            ,;;;;/   |    \|_
                           /;;;;;    \    / .\
                         ,;;;;;;|     '.  \/_/
                        /;;;;;;;|       \
             _,.---._  /;;;;;;;;|        ;   _.---.,_
           .;;/      `.;;;;;;;;;|         ;'      \;;,
         .;;;/         `;;;;;;;;;.._    .'         \;;;.
        /;;;;|          _;-"`       `"-;_          |;;;;\
       |;;;;;|.---.   .'  __.-"```"-.__  '.   .---.|;;;;;|
       |;;;;;|     `\/  .'/__\     /__\'.  \/`     |;;;;;|
       |;;;;;|       |_/ //  \\   //  \\ \_|       |;;;;;|
       |;;;;;|       |/ |/    || ||    \| \|       |;;;;;|
        \;;;;|    __ || _  .-.\| |/.-.  _ || __    |;;;;/
         \jgs|   / _\|/ = /_o_\   /_o_\ = \|/_ \   |;;;/
          \;;/   |`.-     `   `   `   `     -.`|   \;;/
         _|;'    \ |    _     _   _     _    | /    ';|_
        / .\      \\_  ( '--'(     )'--' )  _//      /. \
        \/_/       \_/|  /_   |   |   _\  |\_/       \_\/
                      | /|\\  \   /  //|\ |
                      |  | \'._'-'_.'/ |  |
                      |  ;  '-.```.-'  ;  |
                      |   \    ```    /   |
    __                ;    '.-"""""-.'    ;                __
   /\ \_         __..--\     `-----'     /--..__         _/ /\
   \_'/\`''---''`..;;;;.'.__,       ,__.',;;;;..`''---''`/\'_/
        '-.__'';;;;;;;;;;;,,'._   _.',,;;;;;;;;;;;''__.-'
             ``''--; ;;;;;;;;..`"`..;;;;;;;; ;--''``   _
        .-.       /,;;;;;;;';;;;;;;;;';;;;;;;,\    _.-' `\
      .'  /_     /,;;;;;;'/| ;;;;;;; |\';;;;;;,\  `\     '-'|
     /      )   /,;;;;;',' | ;;;;;;; | ',';;;;;,\   \   .'-./
     `'-..-'   /,;;;;','   | ;;;;;;; |   ',';;;;,\   `"`
              | ;;;','     | ;;;;;;; |  ,  ', ;;;'|
             _\__.-'  .-.  ; ;;;;;;; ;  |'-. '-.__/_
            / .\     (   )  \';;;;;'/   |   |    /. \
            \/_/   (`     `) \';;;'/    '-._|    \_\/
                    '-/ \-'   '._.'         `
                      """      /.`\
                               \|_/

 

-=[ joker ]=-  4/99

           _\@)_       ___ 
            /`\      .' -,'-.__,@
           /        |     `).-'
         _/       _\V^V^V^V/_
        | /\     .=// ^.^ \\=.
        /\ /     .'/| ._. |\'.
       / /-`.       _\___/_
        |/\/\   _@->`   _  `<-@._
          \  \.'  @-'`\( `'-,@   '-.
           \      ,    @    , _.-   `\
            \   .'|    :    |` /'. _.'
             `"`   \   :    / /`\_|  @
             @_  _.'`""""""`'-\_\.--;`
             `-.`      /,     `, .-'
             _.@--; .-'| '. ;-._;@
       jgs .'     @' _.'.  `@  \
          |     _.-'`    '-.    \
           '-._  `-._n_     )   |
               `'-._ ) `-,.'   /
                    u-'--;`@ .'
                         |  /
                        ,\ /,
                        )\.'/
                       /   (
                       \_.. '._.@
                           `-.-'

 

-=[ clown ]=-  1/97
            _
           {_}
           /*\
          /_*_\
         {('o')}
      C{{([^*^])}}D
          [ * ]
         /  Y  \
        _\__|__/_
 jgs   (___/ \___)

-=[ clown face ]=-  1/97

         )               (
        / \  .-"""""-.  / \
       (   \/ __   __ \/   )
        )  ; / _\ /_ \ ;  (
       (   |  / \ / \  |   )
        \ (,  \0/_\0/  ,) /
         \_|   /   \   |_/
           | (_\___/_) |
           .\ \ -.- / /.
          {  \ `===' /  }
         {    `.___.'    }
      jgs {             }
           `"="="="="="`

 

-=[ clown ]=-  5/97

       ,            _..._            ,
      {'.         .'     '.         .'}
     { ~ '.      _|=    __|_      .'  ~}
    { ~  ~ '-._ (___________) _.-'~  ~  }
   {~  ~  ~   ~.'           '. ~    ~    }
  {  ~   ~  ~ /   /\     /\   \   ~    ~  }
  {   ~   ~  /    __     __    \ ~   ~    }
   {   ~  /\/  -<( o)   ( o)>-  \/\ ~   ~}
    { ~   ;(      \/ .-. \/      );   ~ }
     { ~ ~\_  ()  ^ (   ) ^  ()  _/ ~  }
      '-._~ \   (`-._'-'_.-')   / ~_.-'
          '--\   `'._'"'_.'`   /--'
              \     \`-'/     /
               `\    '-'    /'
           jgs   `\       /'
                   '-...-'

 

-=[ clown ]=-  10/97
               _
              {_}
              / \
           /\/___\/\
          /  /^o^\  \
          \  \'-'/  /
      jgs  '-/vvv\-'

 

 -=[ silly face ]=-  2/00

           __@__
         .'     '.
   \ |  /  _   _  \  | /
  __\|/|  (o) (o)  |\|/__
     \  \    '    /  /
      \__'._ U _.'__/
         `/     \`
          \     /
          /`"o"`\
  jgs  __/       \__
      `--'       '--`

 

-=[ silly face ]=-  6/00

        .----.    .----.
       (   o  \  /  o   )
              |  |
             _/  \_
            (_    _)
         ,    `--`    ,
         \'-.______.-'/
          \          /
           '.--..--.'
       jgs   `"""""`

 

-=[ troll ]=-  4/97

           .:\:/:.
         .:\:\:/:/:.
        :.:\:\:/:/:.:
       :=.' -   - '.=:
       '=(\ 9   9 /)='
          (  (_)  )
          /`-vvv-'\
         /         \
        / /|,,,,,|\ \
       /_//  /^\  \\_\
       WW(  (   )  )WW
        __\,,\ /,,/__
   jgs (______Y______)

 

-=[ gnome ]=-  10/97
           ,
          / \
         /   \
        /     \
       /_______\
       // . . \\
      (/(__7__)\)
      |'-' = `-'|
      |         |
      /\       /\
     /  '.   .'  \
    / /|  `"`  |\ \
    \ \|===LI==|/ /
     '-|_______|-'
        |__|__|
  jgs   |--|--|
       (__)`(__)

 

-=[ gnome ]=-  3/00
           ,-.
            ) \
        .--'   |
       /       /
       |_______|
      (  O   O  )
       {'-(_)-'}
     .-{   ^   }-.
    /   '.___.'   \
   /  |    o    |  \
   |__|    o    |__|
   (((\_________/)))
       \___|___/
  jgs.--' | | '--.
     \__._| |_.__/

 

 

-=[ goblins ]=-  6/97
             ,      ,   
            /(.-""-.)\
        |\  \/      \/  /|
        | \ / =.  .= \ / |
        \( \   o\/o   / )/
         \_, '-/  \-' ,_/
           /   \__/   \
           \ \__/\__/ /
         ___\ \|--|/ /___
       /`    \      /    `\
  jgs /       '----'       \

 
             ,      ,   
            /(.-""-.)\
        |\  \/      \/  /|
        | \ / =.  .= \ / |
        \( \   o\/o   / )/
         \_, '-/  \-' ,_/
           /   \__/   \
           \,___/\___,/
         ___\ \|--|/ /___
       /`    \      /    `\
  jgs /       '----'       \

 

             ,      ,   
            /(.-""-.)\
        |\  \/      \/  /|
        | \ / =.  .= \ / |
        \( \   o\/o   / )/
         \_, '-/  \-' ,_/
           /   \__/   \
           \,___/\___,/
         ___\ \|uu|/ /___
       /`    \ .--. /    `\
   jgs/       '----'       \

 

            ,      ,   
           /(.-""-.)\
        |\ \/      \/ /|
        | \/ =.  .= \/ |
        \( \  o\/o  / )/
         \_, '/  \' ,_/
          /   \__/   \
          \,___/\___,/
        ___\ \|uu|/ /___
      /`    \ .--. /    `\
 jgs /       '----'       \

 

 

-=[ demon ]=-  6/00

        ,
        |\     ____
        \ \.-./ .-' T
         \ _  _( /| | |\
       ) | .)(./ |  |  |
         |   \(   \_|_/
     (   |     \    |
    )    |  \VvV    | (
         |  |\,,\   | 
       ) |  | ^^^   |    )
      (  |  |__     |   (
    )   /      `-. _|    )
   (   /          /  `\
      /          ///_ |
     /jgs       (((-|'
                 ```|



        |\     ____
        | \.-./ .-'
         \ _  _(
         | .)(./
         |   \(
         |     \   |
         |  \vvv   |
         |  |__    |
    jgs /      `-. |

more demons ---> HERE and HERE

-=[ Cupid ]=-  4/97

             ,@@@@@@,
           ,@@@@@""@@, (     _  _
        ,  @@@@@ 6.6\@ :\   ( \/ )
       {{^\@@@C  _-_)@ : \   \  /
       {{:\\@@@) (@@'  :  \   \/   (\/)
       {{::\\ /   \---.:.__\_       \/
        \`::\( ,   \---:---._)
         `"`"; \  \|_.-;====I======{>
             |  \  _.-':   /
     (\/)    |   `"/   :  / 
      \/    //   \/    : /
            \\_   \    :/
              \ \  |   (
               ) ) )
              / / / 
       jgs   / / /_
            (_(____)

 

-=[ lined up for the door ]=-  5/97
                                                               ____
                                                              |    |
     O    ~O  O   O_  ~O    _O   O   ~O  O   O_  ~O     O     |    |
    /|\   /|\ |\ /|   /|\    |\ /|\  /|\ |\ /|   /|\   /|\    |   o|
     |\   /|  |\  |\   |\   /|   |\  /|  |\  |\   |\   /|     |    |
jgs  |/  / |  / | | \  | | / |   |/ / |  / | | \  |/  / |     |____|

 

 

-=[ Grim Reaper ]=-  6/97




                                           .""--.._
                                           []      `'--.._
                                           ||__           `'-,
                                         `)||_ ```'--..       \
                     _                    /|//}        ``--._  |
                  .'` `'.                /////}              `\/
                 /  .""".\              //{///    
                /  /_  _`\\            // `||
                | |(_)(_)||          _//   ||
                | |  /\  )|        _///\   ||
                | |L====J |       / |/ |   ||
               /  /'-..-' /    .'`  \  |   ||
              /   |  :: | |_.-`      |  \  ||
             /|   `\-::.| |          \   | ||
           /` `|   /    | |          |   / ||
         |`    \   |    / /          \  |  ||
        |       `\_|    |/      ,.__. \ |  ||
        /                     /`    `\ ||  ||
       |           .         /        \||  ||
       |                     |         |/  ||
       /         /           |         (   ||
      /          .           /          )  ||
     |            \          |             ||
    /             |          /             ||
   |\            /          |              ||
   \ `-._       |           /              ||
    \ ,//`\    /`           |              ||
     ///\  \  |             \              ||
    |||| ) |__/             |              ||
    |||| `.(                |              ||
    `\\` /`                 /              ||
       /`                   /              ||
 jgs  /                     |              ||
     |                      \              ||
    /                        |             ||
  /`                          \            ||
/`                            |            ||
`-.___,-.      .-.        ___,'            ||
         `---'`   `'----'`


                                           .""--..__
                     _                     []       ``-.._
                  .'` `'.                  ||__           `-._
                 /    ,-.\                 ||_ ```---..__     `-.
                /    /:::\\               /|//}          ``--._  `.
                |    |:::||              |////}                `-. \
                |    |:::||             //'///                    `.\
                |    |:::||            //  ||'                      `|
        jgs     /    |:::|/        _,-//\  ||
        hh     /`    |:::|`-,__,-'`  |/  \ ||
             /`  |   |'' ||           \   |||
           /`    \   |   ||            |  /||
         |`       |  |   |)            \ | ||
        |          \ |   /      ,.__    \| ||
        /           `         /`    `\   | ||
       |                     /        \  / ||
       |                     |        | /  ||
       /         /           |        `(   ||
      /          .           /          )  ||
     |            \          |     ________||
    /             |          /     `-------.|
   |\            /          |              ||
   \/`-._       |           /              ||
    //   `.    /`           |              ||
   //`.    `. |             \              ||
  ///\ `-._  )/             |              ||
 //// )   .(/               |              ||
 ||||   ,'` )               /              //
 ||||  /                    /             || 
 `\\` /`                    |             // 
     |`                     \            ||  
    /                        |           //  
  /`                          \         //   
/`                            |        ||    
`-.___,-.      .-.        ___,'        (/    
         `---'`   `'----'`
tweaked/diddled by: Herman Hiddema 
mailto:csg824@wing.rug.nl
http://huizen.dds.nl/~shimrod/

retweaked/rediddled by me (jgs)  :)

 

-=[ voodoo doll ]=-  12/98

            .-.'  '.-.
           __  \\//  __
          '_ `\\||//` _'
          ' '\/`""`\/' '
           .-/ o  o \-.
    ()-------\_-==-_/
           ____)  (____
        .--\   \__/   /--.
        '--/__      __\--'
              |____|--------()
     ()-------/~~~~\
             /      \
            <_/\__/\_>
      jgs  _/  /  \  \_
          (___/    \___)

 

-=[ robot and mailbox ]=-  8/99

                       |: |
                       |: |          .-T-.
                    ___|:_|__       /     \
                   //  \     |    }=) o o (={
                   b\__/FIRE |      \_===_/
                     |_______|(_)  _.-"""-._
                       |: |    |\/`/+' _ '+\`\
          .----.       |: |     \__\ +[_]+ /=|
         /[====]\      |: |         )====={\=\_
         |'----'|      |: |         |  .  | `( )
         |USMAIL|      |: |         |_/ \_|
         | """" |      |: |        <__| |__>
         |      |      |: |         |=| |=|
         |:____:|      |: |         |_| |_|
     jgs |/----\|      |: |        (___Y___)
     ^^^^^^^^^^^^^^^^^^^^^^^^^^^^^^^^^^^^^^^^^^

 

-=[ Active Buddy -- rocket robot ]=- 11/00
http://www.activebuddy.com
                   ___
                  |.-.|
              ____||_||____
             |.-----------.|
             ||   [] []   ||
             ||           ||
             || []_____[] ||
         _   ||  [_____]  ||   _
      __| |__||___________||__| |__
     |.---.           _       .---.|
     ||___|    _____ | |__    |___||
     '----.   |___  || _  |   .----'
          |_  ____| || || |  _|
            | |  _  || || | |
          .-| | |_| || || | |-.
        .'  | |_____||____| |  '.
      .'    |      .-.      |    '.
      |     |      | |      |     |
      |    _\      | |      /_    |
      |_.-'  '.____| |____.'  '-._|
              /::/;| |;\::\
             /::|;;|_|;;|::\
             |::|;;;;;;;|::|
             |:::\;;;;;/:::|
              \:::\;;;/:::/
               \:::\;/:::/
                \:::::::/
                 \:::::/
                  \:::/
            jgs    \:/
                    `



Arnie in Terminator II and Terminator

                     ______
                   <((((((\\\
                   /      . }\
                   ;--..--._|}
(\                 '--/\--'  )
 \\                | '-'  :'|
  \\               . -==- .-|
   \\               \.__.'   \--._
   [\\          __.--|       //  _/'--.
   \ \\       .'-._ ('-----'/ __/      \
    \ \\     /   __>|      | '--.       |
     \ \\   |   \   |     /    /       /
      \ '\ /     \  |     |  _/       /
       \  \       \ |     | /        /
 snd    \  \      \        /

2001: A Space Odyssey

                                             _.--"""""--._
                                          ,-'             `-.
               _                        ,' --- -  ----   --- `.
             ,'|`.                    ,'       ________________`.
            O`.+,'O                  /        /____(_______)___\ \
   _......_   ,=.         __________;   _____  ____ _____  _____  :
 ,'   ,--.-`,,;,:,;;;;;;;///////////|   -----  ---- -----  -----  |
( SSt(  ==)=========================|      ,---.    ,---.    ,.   |
 `._  `--'-,``````"""""""\\\\\\\\\\\:     /`. ,'\  /_    \  /\/\  ;
    ``````                           \    :  Y  :  :-'-. :  : ): /
                                      `.  \  |  /  \=====/  \/\/'
                                        `. `-'-'    `---'    ;'
                                          `-._           _,-'
                                              `--.....--'   ,--.
                                                           ().0()
                                                            `'-'
                       ---                                     
                    -        --                             
                --( /     \ )XXXXXXXXXXXXX                   
            --XXX(   O   O  )XXXXXXXXXXXXXXX-              
           /XXX(       U     )        XXXXXXX\               
         /XXXXX(              )--   XXXXXXXXXXX\             
        /XXXXX/ (      O     )   XXXXXX   \XXXXX\
        XXXXX/   /            XXXXXX   \   \XXXXX----        
        XXXXXX  /          XXXXXX         \  ----  -         
---     XXX  /          XXXXXX      \           ---        
  --  --  /      /\  XXXXXX            /     ---=         
    -        /    XXXXXX              '--- XXXXXX         
      --\/XXX\ XXXXXX                      /XXXXX         
        \XXXXXXXXX                        /XXXXX/
         \XXXXXX                         /XXXXX/         
           \XXXXX--  /                -- XXXX/       
            --XXXXXXX---------------  XXXXX--         
               \XXXXXXXXXXXXXXXXXXXXXXXX-            
                 --XXXXXXXXXXXXXXXXXX-

1184 

                     ..    d$P              $$      `$b
                    z$"   $$F               4$$      $$L
                    $$   4$$                 $$.     4$$    ,z$P
                    $$   $$'                 $$F      $$   $$$P
                   $$$   $$                  $$f      $$   ""`
                  $'$$; 4$F      .,_         $$'      $$
                .$' ?$L 4$'   .d$" `?    zee $$   ,ec $F  d$F z$$   ,ce,.
              .d$ee. $$ 4$'  d$"   z$  $$"  .$f.d$"  4$  4$$ 4$$P z$P?$$$
             d$" "?$$d$,`$  $$F   z$f,$$    $$.$$    $P  $$% $$$4$"   4$$
.$"%.     ,p$"        $$ $ J$$  z$$$ $$"  .$$ $$"  .$$C 4$P  $$$"     $$f
`$.     ,d$b****q,     $.$ $$$$$P $$.$$b.$P4$ $$L.$P4$F $P  4$P     .$$"
 `?$$g$P"        "     `b' `??"   "?"^?F"   $$`?PF"  $$ "   P'     eF

Aladdin looking at the lamp by Shanaka Dias

           .-.
          [.-''-.,
          |  //`~\)
          (<| 0\0|>_
          ";\  _"/ \\_ _,
         __\|'._/_  \ '='-,
        /\ \    || )_///_\>>
       (  '._ T |\ | _/),-'
        '.   '._.-' /'/ |
        | '._   _.'`-.._/
  snd   ,\ / '-' |/
        [_/\-----j
   _.--.__[_.--'_\__
  /         `--'    '---._
 /  '---.  -'. .'  _.--   '.
 \_      '--.___ _;.-o     /
   '.__ ___/______.__8----'
     c-'----'

Genie

        _.---.__
      .'        `-.
     /      .--.   |
     \/  / /    |_/
      `\/|/    _(_)
   ___  /|_.--'    `.   .
   \  `--' .---.     \ /|
    )   `       \     //|
    | __    __   |   '/||
    |/  \  /  \      / ||
    ||  |  |   \     \  |
    \|  |  |   /        |
   __\\@/  |@ | ___ \--'
  (     /' `--'  __)|
 __>   (  .  .--' &"\
/   `--|_/--'     &  |
|                 #. |
|                 q# |
 \              ,ad#'
  `.________.ad####'
    `#####""""""''
     `&#"
      &# "&
      "#ba"

Abu

                      __
                    .'_|\     _.--._
                   |_| ` \---/     ``.
                   | ` .'   .--._____`\
                    \ /    /#"__ _<  \/
                     |    |#'/  \| \
                     |__  |# | '@|'@
                    ,'-.`.|"  \_/|_/
                    |   ` \\  __<.`)__
    .'~~`.           `.__,|\\ \ `-_` /
  ,' .--. `.            ) '  \ \(  `'
 / ,'    `. |         _/  ,,  \ \_--
(_/       | |        / \\/  ``\\_/   `-._____
         .' .        |  \\    _________<____))
       .' .'        /|   \\--'  _____----.`-'
      / .'         / (    >----'  .-<_==='
     / /          |   \          /
    | .           |____\        /
    | |             |   \      /
    | .             |    \   _/`
     \ `.         .'|    `\_(`\
      `. `~----~~' .'\    \    )
        `-._____.-'  |    )   /
                     |   /|  /
-Joshua Bell-        |  / (-<_______
                    _/--`-------____\
                    `---._  ==='
                         `--'
James Bond

     0000             0000        7777777777777777/========___________
   00000000         00000000      7777^^^^^^^7777/ || ||   ___________
  000    000       000    000     777       7777/=========//
 000      000     000      000             7777// ((     //
0000      0000   0000      0000           7777//   \\   //
0000      0000   0000      0000          7777//========//
0000      0000   0000      0000         7777
0000      0000   0000      0000        7777
 000      000     000      000        7777
  000    000       000    000       77777
   00000000         00000000       7777777
     0000             0000        777777777

906
E.T.

     .-"""-"""-"""--.--"""-"""-""""-.
   -"  I   I   I  I    I   I  I    I  "-.
  "   MMMMMMMMMMn)))).(((((nMMMMMMMMM    "
 "   M .-''''-. "MMM    MMM" .-'''-. M    "
I   M' .-'''''-. -MM   MM- .'.-''''-. M    I
I  M  'MMMMMMMMM .'''''. 'MMMMMMMMM'  M    I
I  M  M  M$M  MM       :  MM  M$M  M  M    I
I      M MMM  M   -"".""-   M MMM  M       I
I       """"""   MMMMMMMMM   """"""   .    I
 I     '-....-' : MMMMMMM  :  '-...-'.'   I
  " .  '-....-'    -   -     '-...-'     "
   , '.        :                     .'"
    "  '....'                  '.....' "
     "-'...;' :             :  '....'-"
       "-     ".-----....--."      -"
         "-                 .   -"
           "-     '-...- '.'   -"
             "-.; '-....-'  .-"
                 I"-......I"
                 I        I
                 I '-- --'I
                 I        I
                 I '-- --'I
                 I        I
                 I '-- --'I
                 I        I         TAG
                 I '-- --'I
Stargate

                        ___.-----.___
                     _.--_.--=-=--._--._
                   __.---"         "---.__
                  _.--:    ~          :--._
                 _.-:              ~    :-._
               _.-:         ~            :-._
              _.-:  ~                ~    :-._
             _.-:       ~   ~     ~        :-._
            _.-:      ~        ~       ~    :-._
            _.-:   ~                     ~  :-._ 
             _.-:       ~          ~       :-._ 
              _.-:            ~         ~ :-._  
               _.-:  ~                   :-._ 
                _.-:        ~      ~    :-._  ===--._
        _..-===  _-.-:                :-.-_          '-..._
      /      \|/  _.-.-:____________:-.-._        o        "-.__
   _.'          .'  _.-.-.========.-.-._  '.     \|/             \_
   \           /\ .'    /          \    '. /\                o     '--._
LGB \         / //   _ /            \ _   \\ \              \|/        /
_.--'o        \_/_.-' /______________\ '-._\_/                      _.'
    \|/              /                \         _.---._            \
                    /                  \ \|/  .'  .".  '.           \
                   /____________________\     '._ '.' _.'            \
                   '===================='        /   \           _.--'
--._                                         _.-/     \-._       \
    \  _.---_                               |  \_______/  |   _.-'
    / / '    "._o                            \||.-----.||/   \
 ,-"  \|/_."'-.\|/                                            \
/                                                             /



                    OUCHOMA         MARXGROUCHO
           RXGROUCHOMARXGR      ARXGROUCHOMARXGROU
       HOMARXGROUCHOMARXGR   HOMARXGROUCHOMARXGROUC
     RXGROUCHOMARXGROUCHO   XGROUCHOMARXGROUCHOMARXGRO
 OMARXGROUCHOMARXGROUCH  ARXGROUCHOMARXGROUCHOMARXGROUC
 CHOMARXGROUCHOMARXGR   HOMARXGROUCHOMARXGROUCHOMARXGROU
OMARXGROUCHOMARXGR      ARXGROUCHOMARXGROUCHOMARXGROUCHOMA
ROUCHOMARXGROU             OMA   ROUCHOMARXGROUCHOMARXGROU
OMARXGROUCH                               CHOMARXGROUCHOMAR
 CHOMARXGR                                ROUCHOMARXGROUCHOM
 XGROUCHO                                   RXGROUCHOMARXGROU
  CHOMAR                                     UCHOMARXGROUCHOM
    CHO                                       OUCHOMARXGROUCHOM
                                              RXGROUCHOMARXGROUC
                             HOMARXGRO        GROUCHOMARXGROUCHO
          ROUCH            MARXGROUCHOM       CHOMARXGROUCHOMARX
     MARXGROUCHOM        HOMARXGROUCHOMAR     CHOMARXGROUCHOMARX
 OUCHOMARXGROUCHO       UCHOMARXGROUCHOMARX   UCHOMARXGROUCHOMAR
OUCHOMARXGROUCHOM       CHOMARXGROUCHOMARXG    HOMARXGROUCHOMARX
 XG      MARXG            OUCHO ARXGROUCH       OUCHOMARXGROUCH
ARX      OMARX  OU       GR     MARXGRO          OUCHOMARXGROUC  MARX
U       GROUCHOMA       HO     ROUCHOMARXG       ARXGROUCHOMAR   O   OM
A      C  MAR   O       X     H         C         UCHOMARXGRO   OM    RO
O     ROU     RXG       A      C        O          OUCHOMARX   UCHO    G
CH      R    OM         O       U     RXG           ROUCHOM   GROUCHOMA
 XG                     GR           OU     RXGROU    ARXGR  CHOMARXGR
  MA        OM           ARX        AR     CH    XG      MARXGROUCHOM
   OMA     UC              ARX     HO      O      RX     H  ARXGROUC
     OMARXGR                 ARXGROU       G       AR    U HOMARXGR
           U                               OU       GR   HOMARXGROUC
           A                 C              ARXG     OM  XGROUCHO  R
           UC               RXGROU             O      OUCHOMARXG   CH
            UC       ROU   MARXGROU            H         CHOMAR     C
             HO     ROUCHOMARXGROUCH           OM        HOMARXG    HO
        OMARXGROUCHOMARXGROUCHOMARXGR           OU       GROU  O     ROU
        UCHOMARXGROUCHOMARXGROUCHOMAR            GR        X   U       G
        GROUCHOMARXGROUCHOMARXGROUCHO             R        M  XG       A
        XGROUCHOMARXGROUCHOMARXGROUC       ROUCHO A        O AR        M
         XGROUCHOMAR   OUCHOMARXGRO       XG    H M        HOM        HO
                                      RXGROU    ARXG        RX        A
                      UCHOMA         MA    OU      XG                OM
                    OUCHOM          MA      CH                       M
                       CHOM        HO        CH                     HO
                          R        M  XGR                           M
                                   H    XG                         CH
                                   OMARXGR                        CH
                                    X                            OM
                                   RX                            OM
      GROUCHO                     MA                            CH
                                 CH                             O
                                CH                             OU
                               MA                              O
                             XGR                            ARXG
                           OUC                         ARXGRO
                           O                         OMA
                           O                        HO
                           XG                      RO
                            OM                    OM
                             C                   OU
                             X                   A
                         GROUCHOMARXGROUCHOMARXGROUCHOMARXGR
                         GROUCHOMARXGROUCHOMARXGROUCHOMARXGR
                         GROUCHOMARXGROUCHOMARXGROUCHOMARXGR
                         GROUCHOMARXGROUCHOMARXGROUCHOMARXGR
                         CHOMARXGROUCHOMARXGROUCHOMARXGROUCH


Yoda by Blazej Kozlowski & Faux_Pseudo

                    ____
                 _.' :  `._
             .-.'`.  ;   .'`.-.
    __      / : ___\ ;  /___ ; \      __
  ,'_ ""--.:__;".-.";: :".-.":__;.--"" _`,
  :' `.t""--.. '<@.`;_  ',@>` ..--""j.' `;
       `:-.._J '-.-'L__ `-- ' L_..-;'
         "-.__ ;  .-"  "-.  : __.-"
             L ' /.------.\ ' J
              "-.   "--"   .-"
             __.l"-:_JL_;-";.__
          .-j/'.;  ;""""  / .'\"-.
        .' /:`. "-.:     .-" .';  `.
     .-"  / ;  "-. "-..-" .-"  :    "-.
  .+"-.  : :      "-.__.-"      ;-._   \
  ; \  `.; ;                    : : "+. ;
  :  ;   ; ;                    : ;  : \:
 : `."-; ;  ;                  :  ;   ,/;
  ;    -: ;  :                ;  : .-"'  :
  :\     \  : ;             : \.-"      :
   ;`.    \  ; :            ;.'_..--  / ;
   :  "-.  "-:  ;          :/."      .'  :
     \       .-`.\        /t-""  ":-+.   :
      `.  .-"    `l    __/ /`. :  ; ; \  ;
        \   .-" .-"-.-"  .' .'j \  /   ;/
         \ / .-"   /.     .'.' ;_:'    ;
          :-""-.`./-.'     /    `.___.'
                \ `t  ._  /  bug :F_P:
                 "-.t-._:'

General Ackbar by Michal 'Goldmoon' Kwasniewski

                            __...------------._
                         ,-'                   `-.
                      ,-'                         `.
                    ,'                            ,-`.
                   ;                              `-' `.
                  ;                                 .-. \
                 ;                           .-.    `-'  \
                ;                            `-'          \
               ;                                          `.
               ;                                           :
              ;                                            |
             ;                                             ;
            ;                            ___              ;
           ;                        ,-;-','.`.__          |
       _..;                      ,-' ;`,'.`,'.--`.        |
      ///;           ,-'   `. ,-'   ;` ;`,','_.--=:      /
     |'':          ,'        :     ;` ;,;,,-'_.-._`.   ,'
     '  :         ;_.-.      `.    :' ;;;'.ee.    \|  /
      \.'    _..-'/8o. `.     :    :! ' ':8888)   || /
       ||`-''    \\88o\ :     :    :! :  :`""'    ;;/
       ||         \"88o\;     `.    \ `. `.      ;,'
       /)   ___    `."'/(--.._ `.    `.`.  `-..-' ;--.
       \(.="""""==.. `'-'     `.|      `-`-..__.-' `. `.
        |          `"==.__      )                    )  ;
        |   ||           `"=== '                   .'  .'
        /\,,||||  | |           \                .'   .'
        | |||'|' |'|'           \|             .'   _.' \
        | |\' |  |           || ||           .'    .'    \
        ' | \ ' |'  .   ``-- `| ||         .'    .'       \
          '  |  ' |  .    ``-.._ |  ;    .'    .'          `.
       _.--,;`.       .  --  ...._,'   .'    .'              `.__
     ,'  ,';   `.     .   --..__..--'.'    .'                __/_\
   ,'   ; ;     |    .   --..__.._.'     .'                ,'     `.
  /    ; :     ;     .    -.. _.'     _.'                 /         `
 /     :  `-._ |    .    _.--'     _.'                   |
/       `.    `--....--''       _.'                      |
          `._              _..-'                         |
             `-..____...-''                              |
                                                         |
                               mGk                       |

Darth Maul                       ._                                 
                              ,-'_ `-.                              
                              ::".^-. `.                            
                              ||<    >. \                           
                              |: _, _| \ \                          
                              : .'| '|  ;\`.                        
                              _\ .`  '  | \ \                       
                            .' `\ *-'   ;  . \                      
                           '\ `. `.    /\   . \                     
                         _/  `. \  \  :  `.  `.;                    
                       _/ \  \ `-._  /|  `  ._/                     
                      / `. `. `.   /  :    ) \                      
                      `;._.  \  _.'/   \ .' .';                     
                      /     .'`._.* /    .-' (                      
                    .'`._  /    ; .' .-'     ;                      
                    ; `._.:     |(    ._   _.'|                     
                    `._   ;     ; `.-'        |                     
                     |   / .-'./ .'  \ .     /:                     
                     |  +.'  \ `-.   .\ *--*' ;\                    
                     ;.' `. \ `.    /` `.    /  .                   
                    /.L-'\_: L__..-*     \   ".  \                  
                   :/ / .' `' ;   `-.     `.   \  .                 
                   / /_/     /              \   ;  \                
              |  _/ /       /          \     `./    .               
            `   .  ;       /    .'      `-.   ;      \              
           --  /  /  --   ,    /           `"' \      .             
          .   .  '       /   .'                 `.     \            
             /  /    `  /   /                  |  `-.   .           
        --  .  '   \   /                         `.  `-._\          
       .   /  /       : `*.                    :   `.    `-.        
          .  '    `   |    \                    \    `-._   `-._    
     --  /  /   \     :     ;                    \              |   
   .    .  '           ;                          `.  \      :  ;   
       /  /   `       : \    \                      `. `._  /  /    
  --  .  '  \         |  `.   `.                      `-. `'  /\    
     /  .             ;         `-.              \       `-..'  ;   
 `  .  '   `          |__                     |   `.         `-._.  
_  :  /  \     [bug]    ;`-.                  :     `-.           ; 
    `"  `               |   `.                 \       `*-.__.-*"' \
' /  . \                ;_.  :`-._              `._                /
                       /   `  . ; `"*-._                       _.-` 
                     .'"'    _;  `-.__                     _.-`     
                     `-.__.-"         `""---...___...--**"' |       
                                                  `.____..--'

13530


Art by Shanaka Dias

           __
.-.__      \ .-.  ___  __
|_|  '--.-.-(   \/\;;\_\.-._______.-.
(-)___     \ \ .-\ \;;\(   \       \ \
 Y    '---._\_((Q)) \;;\\ .-\     __(_)
 I           __'-' / .--.((Q))---'    \,
 I     ___.-:    \|  |   \'-'_          \
 A  .-'      \ .-.\   \   \ \ '--.__     '\
 |  |____.----((Q))\   \__|--\_      \     '
    ( )        '-'  \_  :  \-' '--.___\
     Y                \  \  \       \(_)
     I                 \  \  \         \,
     I                  \  \  \          \
     A                   \  \  \          '\
     |              snd   \  \__|           '
                           \_:.  \
                             \ \  \
                              \ \  \
                               \_\_|

Art by Rowan Crawford

               ________
          _,.-Y  |  |  Y-._
      .-~"   ||  |  |  |   "-.
      I" ""=="|" !""! "|"[]""|     _____
      L__  [] |..------|:   _[----I" .-{"-.
     I___|  ..| l______|l_ [__L]_[I_/r(=}=-P
    [L______L_[________]______j~  '-=c_]/=-^
     \_I_j.--.\==I|I==_/.--L_]
       [_((==)[`-----"](==)j
          I--I"~~"""~~"I--I
          |[]|         |[]|
          l__j         l__j
          |!!|         |!!|
          |..|         |..|
          ([])         ([])
          ]--[         ]--[
          [_L]         [_L]  -Row  (the Ascii-Wizard of Oz)
         /|..|\       /|..|\
        `=}--{='     `=}--{='
       .-^--r-^-.   .-^--r-^-.
~~~~~~~~~~~~~~~~~~~~~~~~~~~~~~~~~~~~~~~~~

Art by Shanaka Dias

                       .-.
                      |_:_|
                     /(_Y_)\
.                   ( \/M\/ )
 '.               _.'-/'-'\-'._
   ':           _/.--'[[[[]'--.\_
     ':        /_'  : |::"| :  '.\
       ':     //   ./ |oUU| \.'  :\
         ':  _:'..' \_|___|_/ :   :|
           ':.  .'  |_[___]_|  :.':\
            [::\ |  :  | |  :   ; : \
             '-'   \/'.| |.' \  .;.' |
             |\_    \  '-'   :       |
             |  \    \ .:    :   |   |
             |   \    | '.   :    \  |
             /       \   :. .;       |
            /     |   |  :__/     :  \\
           |  |   |    \:   | \   |   ||
          /    \  : :  |:   /  |__|   /|
      snd |     : : :_/_|  /'._\  '--|_\
          /___.-/_|-'   \  \
                         '-'
                                               .'. .
                                             .'  ,'.
                                 ,'        .'  .'  .
                             . ,' :       '  .'    :
                          ,-' `    ' ,   '  '      :
                        ,'          ',  '  '       :
                      ,'_   ___   .  , .  '        :
                      .' .,'   ` /:  /   .         :
                      `--   -.  ' : / .            ;
                       |6)  6)   C),    .         ;
                       ; .,     .,'   :.         .
                       `. o     :     :.        ;
                         `-..'  :._   :|       '
                           ,'  /_  `. :|     .'
                          '.__/  `.  .:|  _.'
                          : .'    |   .:-'
                        .'|/     /     `.
                       ,  /    ,'         `.
                      / ,'   ,'"--. _        `.
                     / /   ,'      /  `        `.
                   .' /  ,'""""""-'--..`_        `.
                  ,'.' ,'                `-.       .
                .' '  /  ,--.._             `.     :
               / ,' .'  /      `-.._         |     ;
            _.' .  /   /            `"--...._L__.-'____
          .' .-' ,'  ,'              / / /( (   / / / /
          :;':,'/  ,'                \ \ \ ) \ ( ( ( (
            , ,'  .                   ) ) / / \ \ \ @ )
          ,'.'  ,'                   ( ( ( ( @ ) ) \ \|
        ,'.'  ,'                      \ \ \ \ / / @ ) |
       / '  ,'                        | || | V ( / / /|
     .' '  .                          | |  | | | .' / |
    ,  '  .                           / )| | | |( @ ) \
   /  /    .                         / ) / | | | \ / ( \
  '  /  _..'                       ,' / / /  | \  | \ \ \
,'_ ; ,'WwwwWwwwWuwWuwWWuWuwuwwWW,' ,''( ,'. /\ \.`. .`. `.wuwWWwuuWWuWWwwWu
"" `-'                         ,','    ';  \|  `.`  `.'  `.`.


R.C. by Joan Stark

     |-----..,,..-----|
     |   o            |
     | __|___  ______ |
      `  |   ||      `
   .----.|   ||    .----.
   |    ||-"`--`"-.|    |
   |   ( |  .--.    )   |
   |   \ ^  |  |    /   |
   |    \   |  |   /    |
   '----'\  |  |  /'----'
         O\ |__| /O
    .---.I.-.  .-.I.---.
    |   |( @ )( @ )|   |
jgs | (`"--..,,..--"`) |
    |  `:-..,__,..-"`  |
    '---'          '---'

Rex by Joan Stark

                              _.-.
                             /  99\
                            (      `\
                            |\\ ,  ,|
                    __      | \\____/
              ,.--"`-.".   /   `---'
          _.-'          '-/      |
      _.-"   |   '-.             |_/_
,__.-'  _,.--\      \      ((    /-\
',_..--'      `\     \      \\_ /
                `-,   )      |\' 
                  |   |-.,,-" (  
                  |   |   `\   `',_
                  )    \    \,(\(\-'
              jgs \     `-,_
                   \_(\-(\`-`
                      "  "

Buzz Lightyear by Joan Stark

            _._                           _._
           ||||                           ||||
           ||||_           ___           _||||
           |  ||        .-'___`-.        ||  |
           \   /      .' .'_ _'. '.      \   /
           /~~|       | (| b d |) |       |~~\
          /'  |       |  |  '  |  |       |  `\
,        /__.-:      ,|  | `-' |  |,      :-.__\       ,
|'-------(    \-''""/.|  /\___/\  |.\""''-/    )------'|
|         \_.-'\   /   '-._____.-'   \   /'-._/        |
|.---------\   /'._| _    .---. ===  |_.'\   /--------.|
'           \ /  | |\_\ _ \=v=/  _   | |  \ /          '
             `.  | | \_\_\ ~~~  (_)  | |  .'
               `'"'|`'--.__.^.__.--'`|'"'`
                   \                 /
                    `,..---'"'---..,'
                      :--..___..--:    TO INFINITY...
                       \         /  
                       |`.     .'|       AND BEYOND!
                       |  :___:  |
                       |   | |   |
                       |   | |   |
                       |.-.| |.-.|
                       |`-'| |`-'|
                       |   | |   |
                      /    | |    \
                     |_____| |_____|
                     ':---:-'-:---:'
                     /    |   |    \
                jgs /.---.|   |.---.\
                    `.____;   :____.'
           ___
     _..--"\  `|`""--.._
  .-'       \  |        `'-.
 /           \_|___...----'`\
|__,,..--""``(_)--..__      |
'\     _.--'`.I._     ''--..'
  `''"`,#JGS/_|_\###,---'`
    ,#'  _.:`___`:-._ '#,
   #'  ,~'-;(oIo);-'~, '#
   #   `~-(  |    )=~`  #
   #       | |_  |      #
   #       ; ._. ;      #
   #  _..-;|\ - /|;-._  #
   #-'   /_ \\_// _\  '-#
 /`#    ; /__\-'__\;    #`\
;  #\.--|  |O  O   |'-./#  ;
|__#/   \ _;O__O___/   \#__|
 | #\    [I_[_]__I]    /# |
 \_(#   /  |O  O   \   #)_/
       /   |        \
      /    |         \
     /    /\          \
    /     | `\         ;
   ;      \   '.       |
    \-._.__\     \_..-'/
     '.\  \-.._.-/  /'`
        \_.\    /._/
         \_.;  ;._/
       .-'-./  \.-'-.
      (___.'    '.___)

           ___
     _..--"\  `|`""--.._
  .-'       \  |        `'-.
 /           \_|___...----'`\
|__,,..--""``(_)--..__      |
'\     _.--'`.I._     ''--..'
  `''"`,#JGS/_|_\###,.--'`
    ,#'  _.:`___`:-._'#,
   #'  ,~'-;(oIo);-'~, '#
   #   `~-(  |    )=~`  #
   #       | |_  |      #
   #       ; ._. ;      #
   #  _..-;|\ - /|;-._  #
   #-'   /_ \\_// _\  '-#
 /`#    ; /__\-'__\;    #`\
;  #\.--|  |O  O   |'-./#  ;
|__#/   \ _;O__O___/   \#__|
 | #\    [I_[_]__I]    /# |
 \_(#   ;  |O  O   ;   #)_/
        |  |       |
        |  ;       |
        |  |       |
        ;  |       |
        |  |       |
        |  |       ;
        |  |       |
        '-.;____..-'
          |  ||  |
          |__||__|
          [__][__]
        .-'-.||.-'-.
       (___.'  '.___)

                  _..__
                .' I   '.
                |.-"""-.|
               _;.-"""-.;_
           _.-' _..-.-.._ '-._
          ';--.-(_o_I_o_)-.--;'
           `. | |  | |  | | .`
             `-\|  | |  |/-'
                |  | |  |
                |  \_/  |
             _.'; ._._. ;'._
        _.-'`; | \  -  / | ;'-.
      .' :  /  |  |   |  |  \  '.
     /   : /__ \  \___/  / __\ : `.
    /    |   /  '._/_\_.'  \   :   `\
   /     .  `---;"""""'-----`  .     \
  /      |      |()    ()      |      \
 /      /|      |              |\      \
/      / |      |()    ()      | \      \
|         |
\     \   |][     |   |    ][ |   /     /
 \     \ ;=""====='"""'====""==; /     /
  |/`\  \/      |()    ()      \/  /`\|
   |_/.-';      |              |`-.\_|
     /   |      ;              :   \
     |__.|      |              |.__|
         ;      |              | 
         |      :              ;
         |      :              |
         ;      |              |
         ;      |              ;
         |      :              |
         |      |              ;
         |      |              ;
         '-._   ;           _.-'
             `;"--.....--";`
              |    | |    |
              |    | |    |
              |    | |    |
              T----T T----T
         _..._L____J L____J _..._
       .` "-. `%   | |    %` .-" `.
      /      \    .: :.     /      \
      '-..___|_..=:` `-:=.._|___..-'

              .'|
             |  |  _ _
             |  | (_X_)
             |  |   |
              `.|_.-"-._
                |.-"""-.|
               _;.-"""-.;_
           _.-' _..-.-.._ '-._
          ';--.-(_o_I_o_)-.--;'
           `. | |  | |  | | .`
             `-\|  | |  |/-'
                |  | |  |
                |  \_/  |
             _.'; ._._. ;'._
        _.-'`; | \  -  / | ;'-.
      .' :  /  |  |   |  |  \  '.
     /   : /__ \  \___/  / __\ : `.
    /    |   /  '._/_\_.'  \   :   `\
   /     .  `---;"""""'-----`  .     \
  /      |      |()    ()      |      \
 /      /|      |              |\      \
/      / |      |()    ()      | \      \
|         |
\     \  | ][     |   |    ][  |  /     /
 \     \ ;=""====='"""'====""==; /     /
  |/`\  \/      |()    ()      \/  /`\|
   |_/.-';      |              |`-.\_|
     /   |      ;              :   \
     |__.|      |              |.__|
         ;      |              |
         |      :              ;
         |      :              |
         ;      |              |
         ;      |              ;
         |      :              |
         |      |              ;
         |      |              ;
         '-._   ;           _.-'
             `;"--.....--";`
              |    | |    |
              |    | |    |
              |    | |    |
              T----T T----T
         _..._L____J L____J _..._
       .` "-. `%   | |    %` .-" `.
      /      \    .: :.     /      \
      '-..___|_..=:` `-:=.._|___..-'
diddle by VK

Donald Duck by Susie Oviatt

                   ++++++++++++ 
                ++++++++++++++++++ 
              ++++++++++++++++++++++ 
             ++++++++++++++++++++++++ + ++++ 
            ++++++++++++++++++++++++ +++ ++++++ 
            ++++++++++++++++++++++++++++++++++++ 
             ++++++++++++++++++++++++++++++++++++ 
             :::::::::,a@@a,:::::,a@a,++++++++++. 
        .ooOOOOOOOOOOo@@@@@@oOoOo@@@@@,++++++++/:. 
     o OOOOOOOOOOOOo@@@@@@@@@oOOo@@@@@@,++++++/::: 
  o oOOOOOOOOOOOOOo@@@@@@@@@@@oOo@@@@@@a  '::::::: 
 oOoOOOOOOOOOOOOOOo@@@@@@@@@@@oOo@@@@@@@   ::::::: 
oOOOOOOOOOOOOOOOOo@@@@@@@@@@@@oOo@@@@@@@   ::: ::' 
oOOOOOOOOOOOOOOOOo`  '@@@@@@@@oOo` '@@@@  ,:'  ' 
oOOOOOOO%%%%%OOOOo    @@@@@@@@oOo   @@@a 
 oOOOO;%%%.%%%OOOo.  ,@@@@@@@oOOo. ,@@@' 
  oOOO%%%.%%%%%OOOoa@@@@@@@@oOOOo@@@@@' 
   OOO%%%.%%%%%%OOo@@@@@@@@oOOOOOo@@@'        .,;%%%%%;. 
    OOO%%.%%%%%%%%%%%%%%%%%%%%%%%%%%%%%%%%%%%//%%%%%%%%% 
      OO%%.%%%%%%%%%%%%%%%%;%%%%%%%%%%%%%%//%%%%%%%%%%%; 
        O%%.....';%%%%%%%%%%%%%%%%%%%%%%%%%%%%%%%%%;' 
          %%.............%%%%%%%%%%%%%%%%%%%%%%%;' 
           %%............`%%,   """"""""""""" 
            %%............%%; 
             %%...........%%; 
              %%%%%%%%%%%%%; 
               `%%%%%%%%%;'

                                                      ____
                                                     /    `.
                                                    /-----.|          ____
                                                ___/___.---`--.__.---'    `--.
                                  _______.-----'           __.--'             )
                              ,--'---.______________..----'(  __         __.-'
                                        `---.___,-.|(a (a) /-'  )___.---'
                                                `-.>------<__.-'
            ______                       _____..--'      //
    __.----'      `---._                `._.--._______.-'/))
,--'---.__              -_                  _.-(`-.____.'// \
          `-._            `---.________.---'    >\      /<   \
              \_             `--.___            \ \-__-/ /    \
                \_                  `----._______\ \  / /__    \
                  \                      /  |,-------'-'\  `-.__\
                   \                    (   ||            \      )
                    `\                   \  ||            /\    /
                      \                   >-||  @)    @) /\    /
                      \                  ((_||           \ \_.'|
                       \                    ||            `-'  |
                       \                    ||             /   |
                        \                   ||            (   '|
                        \                   ||  @)     @)  \   |
                         \                  ||              \  )
                          `\_               `|__         ____\ |
                             \_               | ``----'''     \|
                               \_              \    .--___    |)
                                 `-.__          \   |     \   |
                                      `----.___  \^/|      \/\|
                                               `--\ \-._  / | |  
                                                   \ \  `'  \ \
                                            __...--'  )     (  `-._
                                           (_        /       `.    `-.__
                                             `--.__.'          `.       )
                                                                 `.__.-'

