>> skeleton <<  10/96

                   _.---._
                 .'       `.
                 :)       (:
                 \ (@) (@) /
                  \   A   /
                   )     (
                   \"""""/
                    `._.'
                     .=. 
             .---._.-.=.-._.---.  
            / ':-(_.-: :-._)-:` \
           / /' (__.-: :-.__) `\ \
          / /  (___.-` '-.___)  \ \
         / /   (___.-'^`-.___)   \ \
        / /    (___.-'=`-.___)    \ \
       / /     (____.'=`.____)     \ \ 
      / /       (___.'=`.___)       \ \
     (_.;       `---'.=.`---'       ;._)
     ;||        __  _.=._  __        ||;
     ;||       (  `.-.=.-.'  )       ||;
     ;||       \    `.=.'    /       ||;
     ;||        \    .=.    /        ||;
     ;||       .-`.`-._.-'.'-.       ||;
    .:::\      ( ,): O O :(, )      /:::.
    |||| `     / /'`--'--'`\ \     ' ||||
    ''''      / /           \ \      ''''
             / /             \ \
            / /               \ \
           / /                 \ \
          / /                   \ \
         / /                     \ \
        /.'                       `.\
       (_)'                       `(_)
        \\.                       .//
         \\.                     .//
          \\.                   .//
           \\.                 .//
            \\.               .//
             \\.             .//
        jgs   \\.           .//  
              ///)         (\\\
            ,///'           `\\\,
           ///'               `\\\
          ""'                   '""

 

-=[ skeletons ]=-  6/98

                 .-"```"-.
                /         \
                |  _   _  |
                | (_\ /_) |
                (_   A   _)
                 | _____ |
                 \`"""""`/
                  '-.-.-'
                   _:=:_
            .-""""`_'='_`""""-.
           (`,-- -`\   /`- --,`)
           / //`-_--| |--_-`\\ \
          / /(_-_  _| |_  _-_)\ \
         / / (_- __ \ / __ -_) \ \
        / /  (_ -_ - ^ - _- _)  \ \
       / /   (_-  _ /=\ _ - _)   \ \
      / /     (_ -.':=:'. -_)     \ \
     (`;`     (_-'  :=:  '-_)     `;`)
      \\.   jgs __  :=:  __       .//
       \\\    .'  `':=:'`  '.    ///
        \\\  |  .--. = .--.  |  ///
         \\\ |  (  / = \  )  | ///
          \\` \ _`' \=/ '`_ / `//
          ;`)  ( ;_/`v`\_; )  (`;
          |||\ | |       | | /|||
          |\\  | |       | |  //|
               | |       | |
               | |       | |
               | |       | |
               | |       | |
               | |       | |
              (._)       (_.)
               ||,       ,||
               ||:       :||
               ||:       :||
               ||:       :||
               ||:       :||
               ||'       '||
              ///)       (\\\
            .///`         `\\\.
           `//`             `\\`



                 .-"```"-.
                /         \
                |  _   _  |
                | (_\ /_) |
                (_   A   _)
                 | _____ |
                 \`"""""`/
                  '-.-.-'
                   _:=:_                   \\|
            .-""""`_'='_`""""-.           \///
           (`,-- -`\   /`- --,`)          (`/
           / //`-_--| |--_-`\\ \         .//
          / /(_-_  _| |_  _-_)\ \       ///
         / / (_- __ \ / __ -_) \ \     ///
        / /  (_ -_ - ^ - _- _)  \ \   ///
       / /   (_-  _ /=\ _ - _)   \ \ '//
      / /     (_ -.':=:'. -_)     \ \//
     (`;`     (_-'  :=:  '-_)      (_,'
      \\.   jgs __  :=:  __
       \\\    .'  `':=:'`  '.
        \\\  |  .--. = .--.  |
         \\\ |  (  / = \  )  |
          \\` \ _`' \=/ '`_ /
          ;`)  ( ;_/`v`\_; )
          |||\ | |       | |
          |\\  | |       | |
               | |       | |
               | |       | |
               | |       | |
               | |       | |
               | |       | |
              (._)       (_.)
               ||,       ,||
               ||:       :||
               ||:       :||
               ||:       :||
               ||:       :||
               ||'       '||
              ///)       (\\\
            .///`         `\\\.
           `//`             `\\`

 

-=[ skeletons ]=-  10/98
        .-.
       (e.e)
        (m)
      .-="=-.  W
     // =T= \\,/
    () ==|== ()
     \  =V=
      M(oVo)
       // \\
      //   \\
     ()     ()
      \\    ||
 jgs   \'   '|
     =="     "==

                                           .-. _)/
                                          (0,0) .\
                                           (u)   ()
      .-.                           _\)  .-="=-.//  
     (o,o)                            \,//==\=== 
      (e)                              ()  =====            .-.
    .-="=-.  \(_           .-.         _____ =,=           (a.a)
   //==I==\\,/            (d.b)       ()--___(0V0)  (/_     (=)
  ()  ="=  ()              (u)        ||()----'      \, ___.="==-._
   \`(0V0)               .-="-.       |' \\           ()---` ==\==\\
  /|) ||\\              //==/=\\    =="   \'                   ="= ()
      || \\  ==.       () ==== ()_/_    =="               ____(0V0) \`
 jgs  ()  ()    \,      `\"=      `                      ()---` // (|\
     //  //      \\ ___(0);`               \)/ .-.       ||    //
    '/  '/        ()---'  \\                /,(o,o)      |'   ()
    "== "==                \\              ()  (w)     =="     \\
                            ()      /_ ___  \\,=",              \`
         .-.               //       '-()-()   =/=\\            =="
        (o.o)             '/         //\\||  ==== ()           .-.   \(_
         (n)              "==       /`  \\|  ="=  `|          (-.-)  ,/
       .-="=-.  \)                =="    `(0V0)    '--         (-)  ()
      // =T= \\,/  joan stark                                .-="=.//
     () ==|== ()   mailto:spunk1111@juno.com                //==I==`
      \  ="=       ASCII ART GALLERY                   _\__()  ===
      /)(0V0)      http://www.ascii-art.com/  \) .-.   -' `   (0V0)
        // \\                                 //(e.e)        // //
       //   \\      .-.  \)                  ()  (=)        // //
      ()     ()    (o.o) ,|                   \\.="=.      () ()
       \\    ||     (m)  ()               ()   ==/==\\      \\ \\
  jgs   \'   '|     ="=//                //\\  ===  ()       \` \`
      =="     "==  //=T=   ()           /`  \(0V0) _/      ==" =="
                  _\` === //\\        =="      || (|\      ,==
   (/_   .-.       /\ (0V0)  `\                ||          .\
    \,  (o.o)           \\    "==              ()   /_____  \\
     ()  (=)             ()   ==.      .==      \\  ` '--()  ()
      \\.="=-.  (|/     //     /,     ,/         \`       \\ ||
        ==|==\\,/      '/     //     //         =="        \\||      \)/
         ===  ()       "==   ()     ()            .-.      (0A0)    ,/
         =.=                  \\   //            (a,a)      ="=    ()
        (0V0)____              \\ //              (o)        ==\= //
         \\ ----()\            (0A0)       \(/  .-="=.        .==='
          \\      `\            =,=          \,//==/=\\     //  (w)
           ()       "==        =====          () ==== ()   ()  (o'o)
          //                  .==I==.            ="=  |'    `\  '-'
         '/                 //  (=)  \\     ____(0V0)/|\     /|)
         "==               ()  (d'b)  ()   ()----`//
                            \`  '-'  `/     \\   //
                           /|\       /\\     \` ()
                                           =="   \\
                                                  \`
                                                =="