   o                   o
    \               __/
     \___          /
         \__    __/
            \  /
 ____________\/____________
/   ____________________   \
|  /__/  \__   \__/  \__\  |
| |    __   \__    __   \| |
| |\__/  \__   \__/  \__ | |
| |    __   \__    __   \| |
| |\__/  \__   \__/  \__ | |
| |    __   \__    __   \| |
| |\__/  \__   \__/  \__ | |
| |    __   \__    __   \| |
| |\__/  \__   \__/  \__ | |
|  \________\___________/  |
|                 _   _    |
|  prs           (|) (/)   |
\_________________________/
    "--"           "--"


.---..-----------------------------------------------..---.
|   ||.---------------------------------------------.||   |
| o ||| _0_o O/oo  _0_ \O/ _   _0_  O_0_o_O/ooO _0_ ||| o |
| _ |||O oo _0_ _0_o\O  _O/~'       O oo__0_ _0_o\O ||| _ |
|(_)|||_0_ \O oo        /)    _0_ \O_0_ \O oo       |||(_)|
|   |||---------------------------------------------|||   |
|.-.|||     __....------------------------....___   |||.-.|
| o |||---''                         _.--._      `  ||| o |
|`-'|||             _.--._          'O---O-'        |||`-'|
|   |||     _.--._ 'O---O-'_.--._  _.--._           |||   |
|.-.|||    'O---O-'       'O---O-''O---O-'          |||.-.|
| O |||__,,...,----------------------....___        ||| O |
|`-'||`---------------------------------------------'||`-'|
`---'`-----------------------------------------------'`---'
       _||_            It's Race Day            _||_
MJP   /____\ unless you look like my teams car /____\
                      get outta my face

               o
          o    |
           \   |
            \  |
             \.|-.
             (\|  )
    .==================.
    | .--------------. |
    | |::.::.::.::.::| |
    | |'::'::'::'::':| |
    | |::.::.::.::.::| |
    | |:'::'::'::'::'| |
    | |::.::.::.::.::| |
    | '--------------'o|
    | LI LI """""""   o|
    |==================|
jgs |  .------------.  |
    | /              \ |
    |/                \|
    "                  "


                    o
           o       /
            \     /
             \   /
              \ /
+--------------v-------------+
|  __________________      @ |
| /                  \       |
| |             ,--, |  (\)  |
| |       _ ___/ /\| |       |
| |   ,;`( )__, )  ~ |  (-)  |
| |  // o//   '--;   |       |
| \  ' o \     |     / :|||: |
|  -ooo--------------  :|||: |
+----------------------------+
   []                    []

                    o
           o       /
            \     /
             \   /
              \ /
+--------------v-------------+
|  __________________      @ |
| /          ,  ooo  \       |
| |  ---=====|#O#### |  (\)  |
| |          `  \ )  |       |
| |   ,;`,      | |  |  (-)  |
| |  // o ',    | |  |       |
| \  ' o \ /,   | |  / :|||: |
|  -ooo--------------  :|||: |
+----------------------------+
   []                    []


   _,-.
,-'  _|
|_,-O__`-._
|`-._\`.__ `_.
|`-._`-.\,-'_|  _,-'.
     `-.|.-' | |`.-'|_
        |      |_|,-'_`.
              |-._,-'  |
              | |    _,'
              '-|_,-'               jrei

              